tre/12sec3.csv

X,CH1,Start,Increment
Sequence,VOLT,-6.00E+0,1.00E-2
0,6.68E+0
1,6.80E+0
2,6.68E+0
3,6.80E+0
4,6.80E+0
5,6.68E+0
6,6.68E+0
7,6.80E+0
8,6.76E+0
9,6.68E+0
10,6.76E+0
11,6.68E+0
12,6.68E+0
13,6.80E+0
14,6.68E+0
15,6.80E+0
16,6.76E+0
17,6.72E+0
18,6.80E+0
19,6.68E+0
20,6.68E+0
21,6.80E+0
22,6.76E+0
23,6.68E+0
24,6.72E+0
25,6.80E+0
26,6.68E+0
27,6.80E+0
28,6.80E+0
29,6.68E+0
30,6.76E+0
31,6.68E+0
32,6.80E+0
33,6.68E+0
34,6.72E+0
35,6.80E+0
36,6.76E+0
37,6.68E+0
38,6.80E+0
39,6.68E+0
40,6.80E+0
41,6.68E+0
42,6.68E+0
43,6.80E+0
44,6.68E+0
45,6.80E+0
46,6.68E+0
47,6.80E+0
48,6.76E+0
49,6.68E+0
50,6.76E+0
51,1.00E+0
52,1.44E+0
53,7.20E-1
54,6.80E-1
55,1.40E+0
56,6.80E-1
57,1.52E+0
58,9.60E-1
59,6.80E+0
60,6.80E+0
61,6.68E+0
62,6.68E+0
63,6.80E+0
64,6.76E+0
65,6.68E+0
66,6.68E+0
67,6.80E+0
68,6.80E+0
69,6.68E+0
70,6.80E+0
71,6.68E+0
72,6.76E+0
73,6.68E+0
74,6.68E+0
75,6.80E+0
76,6.72E+0
77,6.80E+0
78,6.80E+0
79,6.68E+0
80,6.76E+0
81,6.68E+0
82,6.68E+0
83,6.80E+0
84,6.72E+0
85,6.80E+0
86,6.76E+0
87,6.68E+0
88,6.80E+0
89,6.68E+0
90,6.68E+0
91,6.80E+0
92,6.72E+0
93,6.80E+0
94,6.68E+0
95,6.80E+0
96,6.72E+0
97,6.80E+0
98,6.76E+0
99,6.68E+0
100,6.68E+0
101,6.76E+0
102,6.68E+0
103,6.76E+0
104,6.80E+0
105,6.68E+0
106,6.68E+0
107,6.80E+0
108,6.76E+0
109,6.68E+0
110,6.80E+0
111,6.68E+0
112,6.80E+0
113,6.68E+0
114,6.72E+0
115,6.80E+0
116,6.76E+0
117,6.68E+0
118,6.80E+0
119,6.68E+0
120,6.76E+0
121,6.68E+0
122,6.80E+0
123,6.68E+0
124,6.68E+0
125,6.80E+0
126,6.72E+0
127,6.80E+0
128,6.76E+0
129,1.04E+0
130,1.44E+0
131,6.80E-1
132,6.80E-1
133,1.44E+0
134,6.80E-1
135,1.60E+0
136,1.00E+0
137,6.80E+0
138,6.68E+0
139,6.80E+0
140,6.76E+0
141,6.68E+0
142,6.68E+0
143,6.80E+0
144,6.68E+0
145,6.80E+0
146,6.76E+0
147,6.68E+0
148,6.68E+0
149,6.80E+0
150,6.76E+0
151,6.68E+0
152,6.68E+0
153,6.80E+0
154,6.72E+0
155,6.80E+0
156,6.80E+0
157,6.68E+0
158,6.76E+0
159,6.68E+0
160,6.76E+0
161,6.68E+0
162,6.68E+0
163,6.80E+0
164,6.68E+0
165,6.80E+0
166,6.80E+0
167,6.68E+0
168,6.80E+0
169,6.68E+0
170,6.68E+0
171,6.80E+0
172,6.76E+0
173,6.68E+0
174,6.76E+0
175,6.68E+0
176,6.76E+0
177,6.68E+0
178,6.68E+0
179,6.80E+0
180,6.80E+0
181,6.68E+0
182,6.68E+0
183,6.80E+0
184,6.80E+0
185,6.68E+0
186,6.68E+0
187,6.80E+0
188,6.72E+0
189,6.80E+0
190,6.76E+0
191,6.68E+0
192,6.80E+0
193,6.68E+0
194,6.80E+0
195,6.68E+0
196,6.68E+0
197,6.80E+0
198,6.68E+0
199,6.80E+0
200,6.68E+0
201,6.76E+0
202,6.68E+0
203,6.80E+0
204,6.76E+0
205,8.40E-1
206,1.44E+0
207,6.80E-1
208,6.80E-1
209,1.44E+0
210,7.20E-1
211,1.64E+0
212,1.16E+0
213,6.80E+0
214,6.76E+0
215,6.68E+0
216,6.80E+0
217,6.68E+0
218,6.76E+0
219,6.68E+0
220,6.68E+0
221,6.80E+0
222,6.76E+0
223,6.68E+0
224,6.80E+0
225,6.72E+0
226,6.72E+0
227,6.80E+0
228,6.80E+0
229,6.68E+0
230,6.76E+0
231,6.68E+0
232,6.68E+0
233,6.80E+0
234,6.80E+0
235,6.68E+0
236,6.80E+0
237,6.68E+0
238,6.68E+0
239,6.80E+0
240,6.68E+0
241,6.80E+0
242,6.76E+0
243,6.68E+0
244,6.80E+0
245,6.68E+0
246,6.80E+0
247,6.68E+0
248,6.80E+0
249,6.68E+0
250,6.80E+0
251,6.68E+0
252,6.68E+0
253,6.80E+0
254,6.68E+0
255,6.80E+0
256,6.68E+0
257,6.80E+0
258,6.80E+0
259,6.68E+0
260,6.68E+0
261,6.80E+0
262,6.76E+0
263,6.68E+0
264,6.68E+0
265,6.80E+0
266,6.76E+0
267,6.68E+0
268,6.80E+0
269,6.68E+0
270,6.80E+0
271,6.68E+0
272,6.76E+0
273,6.68E+0
274,6.68E+0
275,6.80E+0
276,6.76E+0
277,6.68E+0
278,6.68E+0
279,6.80E+0
280,6.80E+0
281,5.88E+0
282,5.68E+0
283,8.40E-1
284,1.44E+0
285,6.80E-1
286,6.80E-1
287,1.44E+0
288,7.60E-1
289,1.68E+0
290,1.32E+0
291,6.80E+0
292,6.68E+0
293,6.80E+0
294,6.76E+0
295,6.68E+0
296,6.68E+0
297,6.80E+0
298,6.68E+0
299,6.80E+0
300,6.76E+0
301,6.68E+0
302,6.76E+0
303,6.68E+0
304,6.68E+0
305,6.76E+0
306,6.68E+0
307,6.80E+0
308,6.68E+0
309,6.80E+0
310,6.76E+0
311,6.68E+0
312,6.76E+0
313,6.68E+0
314,6.76E+0
315,6.68E+0
316,6.76E+0
317,6.68E+0
318,6.68E+0
319,6.80E+0
320,6.76E+0
321,6.68E+0
322,6.76E+0
323,6.68E+0
324,6.80E+0
325,6.68E+0
326,6.80E+0
327,6.68E+0
328,6.80E+0
329,6.68E+0
330,6.68E+0
331,6.80E+0
332,6.68E+0
333,6.76E+0
334,6.68E+0
335,6.80E+0
336,6.68E+0
337,6.80E+0
338,6.76E+0
339,6.68E+0
340,6.80E+0
341,6.68E+0
342,6.68E+0
343,6.80E+0
344,6.76E+0
345,6.68E+0
346,6.68E+0
347,6.76E+0
348,6.80E+0
349,6.68E+0
350,6.68E+0
351,6.80E+0
352,6.68E+0
353,6.80E+0
354,6.80E+0
355,6.68E+0
356,6.76E+0
357,5.24E+0
358,5.04E+0
359,7.60E-1
360,1.48E+0
361,6.80E-1
362,1.40E+0
363,6.80E-1
364,7.20E-1
365,1.76E+0
366,1.72E+0
367,6.80E+0
368,6.80E+0
369,6.68E+0
370,6.80E+0
371,6.68E+0
372,6.80E+0
373,6.68E+0
374,6.80E+0
375,6.68E+0
376,6.72E+0
377,6.76E+0
378,6.76E+0
379,6.68E+0
380,6.76E+0
381,6.68E+0
382,6.68E+0
383,6.80E+0
384,6.80E+0
385,6.68E+0
386,6.68E+0
387,6.80E+0
388,6.80E+0
389,6.68E+0
390,6.80E+0
391,6.68E+0
392,6.80E+0
393,6.68E+0
394,6.76E+0
395,6.68E+0
396,6.80E+0
397,6.68E+0
398,6.68E+0
399,6.80E+0
400,6.76E+0
401,6.68E+0
402,6.76E+0
403,6.68E+0
404,6.76E+0
405,6.68E+0
406,6.68E+0
407,6.80E+0
408,6.80E+0
409,6.68E+0
410,6.68E+0
411,6.80E+0
412,6.68E+0
413,6.80E+0
414,6.68E+0
415,6.80E+0
416,6.68E+0
417,6.80E+0
418,6.68E+0
419,6.80E+0
420,6.68E+0
421,6.80E+0
422,6.68E+0
423,6.80E+0
424,6.80E+0
425,6.68E+0
426,6.80E+0
427,6.68E+0
428,6.76E+0
429,6.68E+0
430,6.76E+0
431,6.68E+0
432,6.76E+0
433,6.68E+0
434,6.76E+0
435,3.56E+0
436,3.40E+0
437,7.60E-1
438,1.40E+0
439,6.80E-1
440,1.40E+0
441,6.80E-1
442,7.20E-1
443,1.76E+0
444,1.84E+0
445,6.80E+0
446,6.80E+0
447,6.68E+0
448,6.76E+0
449,6.68E+0
450,6.80E+0
451,6.68E+0
452,6.68E+0
453,6.80E+0
454,6.76E+0
455,6.68E+0
456,6.68E+0
457,6.80E+0
458,6.68E+0
459,6.80E+0
460,6.80E+0
461,6.68E+0
462,6.76E+0
463,6.68E+0
464,6.68E+0
465,6.80E+0
466,6.68E+0
467,6.80E+0
468,6.80E+0
469,6.68E+0
470,6.76E+0
471,6.68E+0
472,6.76E+0
473,6.68E+0
474,6.76E+0
475,6.68E+0
476,6.68E+0
477,6.76E+0
478,6.76E+0
479,6.68E+0
480,6.68E+0
481,6.80E+0
482,6.76E+0
483,6.68E+0
484,6.68E+0
485,6.80E+0
486,6.76E+0
487,6.68E+0
488,6.80E+0
489,6.68E+0
490,6.76E+0
491,6.68E+0
492,6.76E+0
493,6.68E+0
494,6.68E+0
495,6.80E+0
496,6.76E+0
497,6.68E+0
498,6.68E+0
499,6.80E+0
500,6.76E+0
501,6.68E+0
502,6.68E+0
503,6.80E+0
504,6.68E+0
505,6.80E+0
506,6.68E+0
507,6.80E+0
508,6.68E+0
509,6.80E+0
510,6.80E+0
511,2.92E+0
512,2.80E+0
513,7.20E-1
514,1.44E+0
515,6.80E-1
516,1.40E+0
517,6.80E-1
518,7.20E-1
519,1.84E+0
520,1.88E+0
521,6.80E+0
522,6.68E+0
523,6.80E+0
524,6.80E+0
525,6.68E+0
526,6.80E+0
527,6.68E+0
528,6.68E+0
529,6.76E+0
530,6.68E+0
531,6.80E+0
532,6.68E+0
533,6.80E+0
534,6.76E+0
535,6.68E+0
536,6.76E+0
537,6.68E+0
538,6.76E+0
539,6.68E+0
540,6.68E+0
541,6.80E+0
542,6.76E+0
543,6.68E+0
544,6.68E+0
545,6.80E+0
546,6.68E+0
547,6.80E+0
548,6.68E+0
549,6.80E+0
550,6.68E+0
551,6.80E+0
552,6.68E+0
553,6.80E+0
554,6.80E+0
555,6.68E+0
556,6.76E+0
557,6.68E+0
558,6.68E+0
559,6.80E+0
560,6.76E+0
561,6.68E+0
562,6.68E+0
563,6.80E+0
564,6.76E+0
565,6.68E+0
566,6.76E+0
567,6.68E+0
568,6.68E+0
569,6.80E+0
570,6.68E+0
571,6.80E+0
572,6.68E+0
573,6.80E+0
574,6.80E+0
575,6.68E+0
576,6.76E+0
577,6.68E+0
578,6.68E+0
579,6.80E+0
580,6.76E+0
581,6.68E+0
582,6.76E+0
583,6.68E+0
584,6.80E+0
585,6.68E+0
586,6.80E+0
587,6.68E+0
588,6.76E+0
589,2.04E+0
590,2.04E+0
591,7.20E-1
592,1.40E+0
593,6.80E-1
594,1.40E+0
595,6.80E-1
596,7.60E-1
597,1.96E+0
598,2.04E+0
599,6.80E+0
600,6.68E+0
601,6.80E+0
602,6.68E+0
603,6.80E+0
604,6.68E+0
605,6.80E+0
606,6.80E+0
607,6.68E+0
608,6.68E+0
609,6.80E+0
610,6.68E+0
611,6.80E+0
612,6.80E+0
613,6.68E+0
614,6.68E+0
615,6.80E+0
616,6.68E+0
617,6.80E+0
618,6.80E+0
619,6.68E+0
620,6.68E+0
621,6.80E+0
622,6.68E+0
623,6.80E+0
624,6.80E+0
625,6.68E+0
626,6.68E+0
627,6.80E+0
628,6.80E+0
629,6.68E+0
630,6.76E+0
631,6.68E+0
632,6.80E+0
633,6.68E+0
634,6.80E+0
635,6.68E+0
636,6.76E+0
637,6.68E+0
638,6.68E+0
639,6.80E+0
640,6.76E+0
641,6.68E+0
642,6.76E+0
643,6.68E+0
644,6.76E+0
645,6.68E+0
646,6.76E+0
647,6.68E+0
648,6.68E+0
649,6.80E+0
650,6.76E+0
651,6.68E+0
652,6.76E+0
653,6.68E+0
654,6.76E+0
655,6.68E+0
656,6.68E+0
657,6.80E+0
658,6.68E+0
659,6.76E+0
660,6.68E+0
661,6.80E+0
662,6.76E+0
663,6.68E+0
664,6.76E+0
665,1.68E+0
666,1.76E+0
667,7.20E-1
668,1.44E+0
669,6.80E-1
670,6.80E-1
671,1.44E+0
672,7.60E-1
673,2.24E+0
674,2.32E+0
675,6.80E+0
676,6.80E+0
677,6.68E+0
678,6.80E+0
679,6.68E+0
680,6.68E+0
681,6.80E+0
682,6.68E+0
683,6.80E+0
684,6.68E+0
685,6.80E+0
686,6.76E+0
687,6.68E+0
688,6.76E+0
689,6.68E+0
690,6.68E+0
691,6.80E+0
692,6.80E+0
693,6.68E+0
694,6.68E+0
695,6.80E+0
696,6.80E+0
697,6.68E+0
698,6.72E+0
699,6.80E+0
700,6.76E+0
701,6.68E+0
702,6.68E+0
703,6.80E+0
704,6.68E+0
705,6.80E+0
706,6.68E+0
707,6.80E+0
708,6.80E+0
709,6.68E+0
710,6.80E+0
711,6.68E+0
712,6.80E+0
713,6.68E+0
714,6.76E+0
715,6.68E+0
716,6.72E+0
717,6.80E+0
718,6.68E+0
719,6.80E+0
720,6.76E+0
721,6.68E+0
722,6.76E+0
723,6.68E+0
724,6.80E+0
725,6.68E+0
726,6.80E+0
727,6.68E+0
728,6.72E+0
729,6.80E+0
730,6.76E+0
731,6.68E+0
732,6.68E+0
733,6.80E+0
734,6.80E+0
735,6.68E+0
736,6.76E+0
737,6.68E+0
738,6.72E+0
739,6.80E+0
740,6.80E+0
741,6.68E+0
742,6.76E+0
743,1.48E+0
744,1.72E+0
745,7.20E-1
746,1.44E+0
747,6.80E-1
748,6.80E-1
749,1.44E+0
750,8.00E-1
751,3.04E+0
752,3.20E+0
753,6.80E+0
754,6.76E+0
755,6.68E+0
756,6.76E+0
757,6.68E+0
758,6.68E+0
759,6.80E+0
760,6.68E+0
761,6.80E+0
762,6.76E+0
763,6.68E+0
764,6.72E+0
765,6.80E+0
766,6.68E+0
767,6.80E+0
768,6.76E+0
769,6.68E+0
770,6.68E+0
771,6.80E+0
772,6.80E+0
773,6.68E+0
774,6.76E+0
775,6.68E+0
776,6.76E+0
777,6.72E+0
778,6.76E+0
779,6.68E+0
780,6.68E+0
781,6.80E+0
782,6.68E+0
783,6.80E+0
784,6.80E+0
785,6.68E+0
786,6.80E+0
787,6.68E+0
788,6.68E+0
789,6.80E+0
790,6.76E+0
791,6.68E+0
792,6.80E+0
793,6.68E+0
794,6.68E+0
795,6.80E+0
796,6.80E+0
797,6.68E+0
798,6.68E+0
799,6.80E+0
800,6.76E+0
801,6.68E+0
802,6.68E+0
803,6.76E+0
804,6.68E+0
805,6.80E+0
806,6.80E+0
807,6.68E+0
808,6.80E+0
809,6.68E+0
810,6.80E+0
811,6.68E+0
812,6.72E+0
813,6.80E+0
814,6.68E+0
815,6.80E+0
816,6.68E+0
817,6.80E+0
818,6.80E+0
819,1.08E+0
820,1.60E+0
821,7.60E-1
822,1.44E+0
823,6.80E-1
824,1.44E+0
825,6.80E-1
826,8.40E-1
827,3.44E+0
828,3.64E+0
829,6.80E+0
830,6.76E+0
831,6.68E+0
832,6.80E+0
833,6.68E+0
834,6.76E+0
835,6.68E+0
836,6.80E+0
837,6.68E+0
838,6.68E+0
839,6.80E+0
840,6.80E+0
841,6.68E+0
842,6.68E+0
843,6.80E+0
844,6.68E+0
845,6.80E+0
846,6.80E+0
847,6.68E+0
848,6.76E+0
849,6.68E+0
850,6.68E+0
851,6.80E+0
852,6.72E+0
853,6.80E+0
854,6.80E+0
855,6.68E+0
856,6.68E+0
857,6.80E+0
858,6.68E+0
859,6.80E+0
860,6.76E+0
861,6.68E+0
862,6.68E+0
863,6.80E+0
864,6.80E+0
865,6.68E+0
866,6.76E+0
867,6.68E+0
868,6.68E+0
869,6.80E+0
870,6.68E+0
871,6.80E+0
872,6.68E+0
873,6.80E+0
874,6.80E+0
875,6.68E+0
876,6.68E+0
877,6.80E+0
878,6.68E+0
879,6.80E+0
880,6.68E+0
881,6.80E+0
882,6.68E+0
883,6.80E+0
884,6.80E+0
885,6.68E+0
886,6.80E+0
887,6.68E+0
888,6.68E+0
889,6.80E+0
890,6.80E+0
891,6.68E+0
892,6.80E+0
893,6.68E+0
894,6.68E+0
895,6.80E+0
896,6.76E+0
897,1.12E+0
898,1.56E+0
899,6.80E-1
900,1.40E+0
901,6.80E-1
902,1.44E+0
903,6.80E-1
904,9.20E-1
905,4.84E+0
906,5.04E+0
907,6.80E+0
908,6.80E+0
909,6.68E+0
910,6.68E+0
911,6.80E+0
912,6.68E+0
913,6.80E+0
914,6.80E+0
915,6.68E+0
916,6.80E+0
917,6.68E+0
918,6.80E+0
919,6.68E+0
920,6.80E+0
921,6.68E+0
922,6.68E+0
923,6.80E+0
924,6.80E+0
925,6.68E+0
926,6.68E+0
927,6.80E+0
928,6.68E+0
929,6.80E+0
930,6.68E+0
931,6.80E+0
932,6.80E+0
933,6.68E+0
934,6.76E+0
935,6.68E+0
936,6.68E+0
937,6.80E+0
938,6.68E+0
939,6.76E+0
940,6.80E+0
941,6.68E+0
942,6.80E+0
943,6.68E+0
944,6.68E+0
945,6.80E+0
946,6.68E+0
947,6.80E+0
948,6.76E+0
949,6.68E+0
950,6.68E+0
951,6.76E+0
952,6.68E+0
953,6.80E+0
954,6.68E+0
955,6.80E+0
956,6.76E+0
957,6.68E+0
958,6.68E+0
959,6.80E+0
960,6.76E+0
961,6.68E+0
962,6.68E+0
963,6.80E+0
964,6.68E+0
965,6.80E+0
966,6.80E+0
967,6.68E+0
968,6.68E+0
969,6.80E+0
970,6.80E+0
971,6.68E+0
972,6.80E+0
973,9.20E-1
974,1.52E+0
975,6.80E-1
976,1.44E+0
977,6.80E-1
978,6.80E-1
979,1.44E+0
980,9.60E-1
981,5.28E+0
982,5.52E+0
983,6.80E+0
984,6.68E+0
985,6.80E+0
986,6.80E+0
987,6.68E+0
988,6.80E+0
989,6.68E+0
990,6.68E+0
991,6.80E+0
992,6.80E+0
993,6.68E+0
994,6.68E+0
995,6.80E+0
996,6.80E+0
997,6.68E+0
998,6.72E+0
999,6.80E+0
1000,6.68E+0
1001,6.80E+0
1002,6.68E+0
1003,6.80E+0
1004,6.68E+0
1005,6.80E+0
1006,6.68E+0
1007,6.80E+0
1008,6.80E+0
1009,6.68E+0
1010,6.72E+0
1011,6.80E+0
1012,6.68E+0
1013,6.80E+0
1014,6.72E+0
1015,6.80E+0
1016,6.72E+0
1017,6.80E+0
1018,6.68E+0
1019,6.80E+0
1020,6.68E+0
1021,6.80E+0
1022,6.80E+0
1023,6.68E+0
1024,6.80E+0
1025,6.68E+0
1026,6.72E+0
1027,6.80E+0
1028,6.72E+0
1029,6.80E+0
1030,6.80E+0
1031,6.68E+0
1032,6.72E+0
1033,6.80E+0
1034,6.80E+0
1035,6.68E+0
1036,6.72E+0
1037,6.80E+0
1038,6.76E+0
1039,6.68E+0
1040,6.80E+0
1041,6.68E+0
1042,6.80E+0
1043,6.68E+0
1044,6.72E+0
1045,6.80E+0
1046,6.80E+0
1047,6.68E+0
1048,6.80E+0
1049,6.68E+0
1050,6.80E+0
1051,9.20E-1
1052,1.48E+0
1053,6.80E-1
1054,1.40E+0
1055,6.80E-1
1056,1.44E+0
1057,7.60E-1
1058,8.80E-1
1059,6.28E+0
1060,6.36E+0
1061,6.80E+0
1062,6.68E+0
1063,6.80E+0
1064,6.68E+0
1065,6.80E+0
1066,6.76E+0
1067,6.72E+0
1068,6.80E+0
1069,6.68E+0
1070,6.68E+0
1071,6.80E+0
1072,6.76E+0
1073,6.68E+0
1074,6.72E+0
1075,6.80E+0
1076,6.72E+0
1077,6.80E+0
1078,6.72E+0
1079,6.80E+0
1080,6.76E+0
1081,6.68E+0
1082,6.76E+0
1083,6.68E+0
1084,6.76E+0
1085,6.68E+0
1086,6.80E+0
1087,6.68E+0
1088,6.76E+0
1089,6.68E+0
1090,6.80E+0
1091,6.68E+0
1092,6.68E+0
1093,6.80E+0
1094,6.76E+0
1095,6.68E+0
1096,6.80E+0
1097,6.68E+0
1098,6.68E+0
1099,6.80E+0
1100,6.68E+0
1101,6.80E+0
1102,6.68E+0
1103,6.80E+0
1104,6.68E+0
1105,6.80E+0
1106,6.80E+0
1107,6.68E+0
1108,6.68E+0
1109,6.80E+0
1110,6.68E+0
1111,6.80E+0
1112,6.72E+0
1113,6.80E+0
1114,6.80E+0
1115,6.68E+0
1116,6.76E+0
1117,6.68E+0
1118,6.76E+0
1119,6.68E+0
1120,6.76E+0
1121,6.68E+0
1122,6.80E+0
1123,6.68E+0
1124,6.80E+0
1125,6.68E+0
1126,6.76E+0
1127,8.00E-1
1128,1.48E+0
1129,6.80E-1
1130,1.44E+0
1131,6.80E-1
1132,7.20E-1
1133,1.44E+0
1134,8.40E-1
1135,6.60E+0
1136,6.80E+0
1137,6.68E+0
1138,6.68E+0
1139,6.80E+0
1140,6.76E+0
1141,6.68E+0
1142,6.76E+0
1143,6.68E+0
1144,6.80E+0
1145,6.68E+0
1146,6.72E+0
1147,6.80E+0
1148,6.80E+0
1149,6.68E+0
1150,6.68E+0
1151,6.80E+0
1152,6.76E+0
1153,6.68E+0
1154,6.68E+0
1155,6.80E+0
1156,6.68E+0
1157,6.80E+0
1158,6.72E+0
1159,6.80E+0
1160,6.80E+0
1161,6.68E+0
1162,6.68E+0
1163,6.80E+0
1164,6.68E+0
1165,6.80E+0
1166,6.68E+0
1167,6.80E+0
1168,6.80E+0
1169,6.68E+0
1170,6.76E+0
1171,6.72E+0
1172,6.72E+0
1173,6.80E+0
1174,6.80E+0
1175,6.68E+0
1176,6.76E+0
1177,6.68E+0
1178,6.80E+0
1179,6.68E+0
1180,6.80E+0
1181,6.68E+0
1182,6.68E+0
1183,6.80E+0
1184,6.68E+0
1185,6.80E+0
1186,6.76E+0
1187,6.68E+0
1188,6.76E+0
1189,6.68E+0
1190,6.72E+0
1191,6.80E+0
1192,6.72E+0
1193,6.80E+0
1194,6.68E+0
1195,6.80E+0
1196,6.80E+0
1197,6.68E+0
1198,6.80E+0
1199,6.68E+0
