tre_fotodiodo/ondas.csv

X,CH1,Start,Increment
Sequence,VOLT,0.00E+0,5.00E-2
0,7.32E-1
1,9.48E-1
2,7.38E-1
3,9.48E-1
4,7.38E-1
5,9.54E-1
6,7.38E-1
7,9.54E-1
8,9.48E-1
9,7.38E-1
10,9.48E-1
11,7.32E-1
12,9.30E-1
13,2.04E-1
14,2.16E-1
15,9.42E-1
16,7.38E-1
17,9.48E-1
18,9.54E-1
19,7.38E-1
20,7.38E-1
21,9.54E-1
22,9.54E-1
23,7.38E-1
24,9.48E-1
25,7.44E-1
26,9.54E-1
27,7.38E-1
28,9.18E-1
29,1.92E-1
30,7.32E-1
31,9.42E-1
32,7.38E-1
33,9.48E-1
34,9.48E-1
35,7.38E-1
36,9.48E-1
37,7.50E-1
38,9.54E-1
39,7.38E-1
40,9.48E-1
41,7.38E-1
42,9.36E-1
43,3.18E-1
44,2.10E-1
45,9.30E-1
46,7.44E-1
47,9.48E-1
48,9.54E-1
49,7.38E-1
50,9.54E-1
51,7.38E-1
52,9.54E-1
53,7.38E-1
54,9.48E-1
55,7.38E-1
56,9.48E-1
57,7.38E-1
58,9.36E-1
59,1.86E-1
60,1.92E-1
61,9.24E-1
62,7.32E-1
63,9.42E-1
64,7.38E-1
65,9.48E-1
66,9.48E-1
67,7.32E-1
68,9.48E-1
69,7.38E-1
70,9.48E-1
71,7.32E-1
72,9.36E-1
73,7.32E-1
74,9.24E-1
75,2.04E-1
76,6.90E-1
77,9.42E-1
78,9.48E-1
79,7.38E-1
80,7.38E-1
81,9.48E-1
82,7.38E-1
83,9.54E-1
84,9.48E-1
85,7.38E-1
86,7.38E-1
87,9.54E-1
88,9.48E-1
89,4.50E-1
90,2.10E-1
91,9.12E-1
92,7.44E-1
93,9.42E-1
94,9.48E-1
95,7.38E-1
96,9.48E-1
97,7.38E-1
98,9.48E-1
99,7.38E-1
100,9.48E-1
101,7.44E-1
102,9.48E-1
103,7.38E-1
104,9.30E-1
105,2.10E-1
106,2.04E-1
107,9.36E-1
108,7.38E-1
109,9.48E-1
110,9.48E-1
111,7.38E-1
112,7.38E-1
113,9.54E-1
114,9.48E-1
115,7.38E-1
116,9.48E-1
117,7.38E-1
118,9.42E-1
119,7.32E-1
120,9.24E-1
121,1.86E-1
122,4.56E-1
123,9.36E-1
124,7.32E-1
125,9.42E-1
126,7.38E-1
127,9.48E-1
128,7.38E-1
129,9.54E-1
130,9.48E-1
131,7.38E-1
132,9.48E-1
133,7.38E-1
134,9.42E-1
135,7.26E-1
136,2.04E-1
137,9.18E-1
138,7.32E-1
139,9.48E-1
140,7.38E-1
141,9.54E-1
142,9.48E-1
143,7.38E-1
144,9.54E-1
145,7.38E-1
146,9.48E-1
147,7.44E-1
148,9.48E-1
149,7.56E-1
150,9.36E-1
151,2.16E-1
152,2.04E-1
153,9.18E-1
154,9.42E-1
155,7.38E-1
156,7.38E-1
157,9.48E-1
158,7.44E-1
159,9.48E-1
160,9.48E-1
161,7.38E-1
162,7.38E-1
163,9.48E-1
164,9.36E-1
165,7.32E-1
166,9.18E-1
167,2.04E-1
168,2.10E-1
169,9.42E-1
170,7.38E-1
171,9.48E-1
172,7.38E-1
173,9.48E-1
174,9.48E-1
175,7.32E-1
176,7.38E-1
177,9.54E-1
178,9.48E-1
179,7.32E-1
180,9.48E-1
181,7.32E-1
182,9.06E-1
183,1.86E-1
184,7.26E-1
185,9.42E-1
186,7.38E-1
187,9.48E-1
188,7.38E-1
189,9.48E-1
190,7.38E-1
191,9.48E-1
192,7.38E-1
193,9.48E-1
194,9.48E-1
195,7.32E-1
196,9.36E-1
197,4.20E-1
198,2.04E-1
199,9.42E-1
200,9.48E-1
201,7.44E-1
202,9.54E-1
203,7.38E-1
204,9.54E-1
205,7.56E-1
206,9.54E-1
207,7.38E-1
208,9.48E-1
209,7.38E-1
210,9.48E-1
211,7.44E-1
212,9.30E-1
213,1.98E-1
214,1.98E-1
215,9.30E-1
216,7.38E-1
217,9.42E-1
218,7.38E-1
219,9.48E-1
220,7.38E-1
221,9.48E-1
222,7.38E-1
223,9.48E-1
224,7.38E-1
225,9.48E-1
226,9.42E-1
227,7.32E-1
228,9.18E-1
229,1.98E-1
230,5.10E-1
231,9.48E-1
232,7.38E-1
233,9.54E-1
234,9.54E-1
235,7.38E-1
236,9.54E-1
237,7.38E-1
238,7.38E-1
239,9.54E-1
240,7.38E-1
241,9.60E-1
242,9.48E-1
243,4.86E-1
244,1.92E-1
245,9.18E-1
246,7.32E-1
247,9.42E-1
248,7.32E-1
249,9.48E-1
250,7.38E-1
251,9.54E-1
252,7.38E-1
253,9.54E-1
254,7.38E-1
255,9.48E-1
256,7.38E-1
257,9.48E-1
258,9.30E-1
259,2.04E-1
260,2.16E-1
261,9.36E-1
262,9.48E-1
263,7.38E-1
264,9.48E-1
265,7.38E-1
266,9.54E-1
267,7.50E-1
268,9.48E-1
269,7.44E-1
270,9.48E-1
271,7.44E-1
272,7.44E-1
273,9.48E-1
274,9.24E-1
275,1.92E-1
276,3.06E-1
277,9.30E-1
278,7.38E-1
279,9.42E-1
280,7.38E-1
281,9.48E-1
282,7.38E-1
283,9.54E-1
284,7.38E-1
285,9.48E-1
286,9.42E-1
287,7.38E-1
288,9.36E-1
289,7.26E-1
290,1.98E-1
291,9.06E-1
292,7.26E-1
293,9.30E-1
294,7.32E-1
295,9.36E-1
296,7.32E-1
297,9.36E-1
298,7.32E-1
299,9.42E-1
300,7.32E-1
301,9.36E-1
302,7.32E-1
303,9.36E-1
304,9.24E-1
305,1.92E-1
306,1.86E-1
307,9.06E-1
308,7.26E-1
309,9.30E-1
310,9.36E-1
311,7.32E-1
312,9.36E-1
313,7.32E-1
314,9.36E-1
315,7.50E-1
316,9.36E-1
317,7.38E-1
318,9.30E-1
319,7.38E-1
320,9.12E-1
321,2.10E-1
322,2.16E-1
323,9.36E-1
324,9.42E-1
325,7.38E-1
326,7.44E-1
327,9.48E-1
328,7.38E-1
329,9.48E-1
330,9.48E-1
331,7.38E-1
332,9.48E-1
333,7.38E-1
334,9.42E-1
335,7.32E-1
336,9.12E-1
337,1.98E-1
338,7.26E-1
339,9.42E-1
340,7.38E-1
341,9.48E-1
342,9.48E-1
343,7.38E-1
344,7.38E-1
345,9.48E-1
346,7.38E-1
347,9.54E-1
348,7.38E-1
349,9.48E-1
350,9.36E-1
351,3.42E-1
352,1.98E-1
353,9.36E-1
354,7.38E-1
355,9.54E-1
356,9.54E-1
357,7.38E-1
358,9.54E-1
359,7.38E-1
360,9.54E-1
361,7.38E-1
362,7.38E-1
363,9.54E-1
364,9.54E-1
365,7.38E-1
366,9.36E-1
367,2.10E-1
368,2.16E-1
369,9.36E-1
370,7.50E-1
371,9.48E-1
372,7.38E-1
373,9.54E-1
374,9.54E-1
375,7.38E-1
376,9.54E-1
377,7.44E-1
378,9.48E-1
379,7.38E-1
380,9.42E-1
381,7.38E-1
382,9.30E-1
383,2.10E-1
384,2.82E-1
385,9.48E-1
386,7.44E-1
387,9.54E-1
388,7.44E-1
389,9.54E-1
390,9.60E-1
391,7.38E-1
392,9.54E-1
393,7.38E-1
394,9.54E-1
395,7.38E-1
396,9.42E-1
397,3.42E-1
398,1.86E-1
399,9.18E-1
400,7.32E-1
401,9.42E-1
402,7.38E-1
403,9.48E-1
404,7.38E-1
405,9.48E-1
406,7.38E-1
407,9.54E-1
408,7.38E-1
409,9.54E-1
410,7.38E-1
411,9.48E-1
412,9.36E-1
413,2.10E-1
414,1.98E-1
415,9.36E-1
416,7.38E-1
417,9.54E-1
418,9.54E-1
419,7.38E-1
420,7.38E-1
421,9.54E-1
422,9.54E-1
423,7.38E-1
424,9.54E-1
425,7.38E-1
426,9.54E-1
427,7.38E-1
428,9.30E-1
429,1.92E-1
430,2.58E-1
431,9.36E-1
432,7.44E-1
433,9.54E-1
434,7.38E-1
435,9.54E-1
436,9.54E-1
437,7.50E-1
438,9.54E-1
439,7.56E-1
440,9.48E-1
441,7.38E-1
442,9.42E-1
443,7.32E-1
444,2.16E-1
445,9.24E-1
446,7.50E-1
447,9.54E-1
448,9.54E-1
449,7.44E-1
450,9.54E-1
451,7.50E-1
452,7.50E-1
453,9.66E-1
454,9.54E-1
455,7.44E-1
456,7.44E-1
457,9.54E-1
458,9.42E-1
459,2.04E-1
460,1.98E-1
461,9.24E-1
462,7.32E-1
463,9.42E-1
464,9.48E-1
465,7.38E-1
466,7.38E-1
467,9.54E-1
468,9.48E-1
469,7.38E-1
470,9.48E-1
471,7.38E-1
472,9.48E-1
473,7.32E-1
474,9.30E-1
475,1.98E-1
476,2.16E-1
477,9.42E-1
478,7.38E-1
479,9.54E-1
480,9.54E-1
481,7.38E-1
482,9.54E-1
483,7.44E-1
484,7.38E-1
485,9.60E-1
486,7.38E-1
487,9.54E-1
488,9.48E-1
489,7.32E-1
490,9.12E-1
491,1.86E-1
492,7.26E-1
493,9.42E-1
494,7.38E-1
495,9.48E-1
496,7.38E-1
497,9.54E-1
498,7.38E-1
499,9.54E-1
500,7.38E-1
501,9.54E-1
502,7.38E-1
503,9.48E-1
504,9.42E-1
505,2.34E-1
506,2.04E-1
507,9.36E-1
508,7.38E-1
509,9.54E-1
510,9.54E-1
511,7.44E-1
512,7.44E-1
513,9.60E-1
514,9.60E-1
515,7.38E-1
516,7.50E-1
517,9.54E-1
518,9.54E-1
519,7.44E-1
520,9.42E-1
521,1.98E-1
522,2.16E-1
523,9.30E-1
524,7.32E-1
525,9.54E-1
526,9.48E-1
527,7.50E-1
528,9.54E-1
529,7.38E-1
530,9.48E-1
531,7.56E-1
532,9.48E-1
533,7.38E-1
534,9.42E-1
535,7.32E-1
536,9.30E-1
537,2.16E-1
538,3.36E-1
539,9.42E-1
540,9.54E-1
541,7.38E-1
542,9.54E-1
543,7.50E-1
544,9.54E-1
545,7.44E-1
546,9.54E-1
547,7.38E-1
548,9.54E-1
549,7.38E-1
550,9.42E-1
551,2.88E-1
552,1.92E-1
553,9.12E-1
554,7.32E-1
555,9.42E-1
556,7.38E-1
557,9.48E-1
558,9.48E-1
559,7.38E-1
560,9.48E-1
561,7.38E-1
562,9.48E-1
563,7.38E-1
564,9.48E-1
565,7.38E-1
566,9.30E-1
567,2.04E-1
568,1.98E-1
569,9.36E-1
570,7.38E-1
571,9.54E-1
572,7.38E-1
573,9.54E-1
574,7.38E-1
575,9.54E-1
576,9.54E-1
577,7.38E-1
578,9.54E-1
579,7.38E-1
580,9.54E-1
581,7.32E-1
582,9.30E-1
583,1.86E-1
584,3.12E-1
585,9.36E-1
586,7.38E-1
587,9.48E-1
588,7.38E-1
589,9.54E-1
590,9.54E-1
591,7.38E-1
592,9.54E-1
593,7.38E-1
594,9.48E-1
595,7.38E-1
596,9.42E-1
597,7.32E-1
598,2.04E-1
599,9.18E-1
600,7.38E-1
601,9.48E-1
602,7.44E-1
603,9.54E-1
604,9.54E-1
605,7.44E-1
606,9.54E-1
607,7.44E-1
608,9.54E-1
609,7.38E-1
610,9.54E-1
611,7.44E-1
612,9.42E-1
613,2.16E-1
614,2.10E-1
615,9.24E-1
616,7.44E-1
617,9.48E-1
618,7.56E-1
619,9.54E-1
620,7.50E-1
621,9.54E-1
622,9.54E-1
623,7.50E-1
624,9.54E-1
625,7.44E-1
626,9.48E-1
627,7.38E-1
628,9.36E-1
629,2.10E-1
630,2.16E-1
631,9.48E-1
632,7.44E-1
633,9.54E-1
634,9.54E-1
635,7.44E-1
636,7.44E-1
637,9.54E-1
638,9.54E-1
639,7.38E-1
640,7.38E-1
641,9.54E-1
642,9.48E-1
643,7.32E-1
644,9.18E-1
645,1.92E-1
646,7.26E-1
647,9.42E-1
648,7.38E-1
649,9.48E-1
650,7.38E-1
651,9.54E-1
652,9.54E-1
653,7.38E-1
654,7.38E-1
655,9.54E-1
656,9.48E-1
657,7.38E-1
658,9.48E-1
659,2.58E-1
660,2.04E-1
661,9.36E-1
662,7.38E-1
663,9.54E-1
664,9.54E-1
665,7.38E-1
666,9.54E-1
667,7.38E-1
668,9.54E-1
669,7.38E-1
670,9.54E-1
671,7.38E-1
672,9.54E-1
673,7.44E-1
674,9.42E-1
675,2.10E-1
676,2.16E-1
677,9.30E-1
678,7.44E-1
679,9.48E-1
680,9.54E-1
681,7.50E-1
682,9.54E-1
683,7.44E-1
684,9.54E-1
685,7.44E-1
686,9.54E-1
687,7.38E-1
688,9.42E-1
689,7.32E-1
690,9.24E-1
691,1.98E-1
692,4.20E-1
693,9.42E-1
694,9.54E-1
695,7.38E-1
696,7.38E-1
697,9.54E-1
698,9.54E-1
699,7.44E-1
700,7.44E-1
701,9.54E-1
702,9.54E-1
703,7.38E-1
704,9.48E-1
705,3.18E-1
706,1.92E-1
707,9.18E-1
708,7.32E-1
709,9.42E-1
710,9.48E-1
711,7.32E-1
712,7.32E-1
713,9.48E-1
714,9.48E-1
715,7.32E-1
716,7.32E-1
717,9.42E-1
718,9.42E-1
719,7.32E-1
720,9.30E-1
721,2.28E-1
722,2.22E-1
723,9.30E-1
724,9.42E-1
725,7.32E-1
726,9.48E-1
727,7.32E-1
728,7.38E-1
729,9.48E-1
730,9.48E-1
731,7.32E-1
732,7.32E-1
733,9.42E-1
734,9.42E-1
735,7.26E-1
736,9.18E-1
737,1.86E-1
738,3.96E-1
739,9.18E-1
740,7.26E-1
741,9.36E-1
742,9.36E-1
743,7.26E-1
744,9.36E-1
745,7.26E-1
746,9.36E-1
747,7.26E-1
748,7.26E-1
749,9.36E-1
750,9.24E-1
751,7.14E-1
752,8.94E-1
753,1.92E-1
754,7.20E-1
755,9.30E-1
756,7.26E-1
757,9.36E-1
758,7.32E-1
759,9.36E-1
760,9.36E-1
761,7.32E-1
762,9.36E-1
763,7.32E-1
764,7.38E-1
765,1.04E+0
766,1.07E+0
767,2.04E-1
768,1.92E-1
769,9.06E-1
770,7.26E-1
771,9.24E-1
772,1.17E+0
773,7.26E-1
774,1.17E+0
775,7.26E-1
776,1.17E+0
777,7.26E-1
778,7.26E-1
779,9.30E-1
780,7.26E-1
781,1.17E+0
782,9.06E-1
783,1.92E-1
784,2.04E-1
785,9.18E-1
786,7.26E-1
787,9.30E-1
788,7.26E-1
789,9.30E-1
790,7.26E-1
791,9.30E-1
792,7.26E-1
793,9.30E-1
794,9.30E-1
795,7.26E-1
796,9.24E-1
797,7.20E-1
798,1.92E-1
799,8.82E-1
800,7.20E-1
801,9.24E-1
802,7.26E-1
803,9.30E-1
804,7.32E-1
805,9.30E-1
806,7.32E-1
807,9.30E-1
808,7.26E-1
809,9.30E-1
810,7.26E-1
811,9.24E-1
812,9.12E-1
813,3.18E-1
814,1.86E-1
815,9.06E-1
816,7.20E-1
817,9.30E-1
818,7.26E-1
819,9.30E-1
820,7.26E-1
821,9.42E-1
822,7.32E-1
823,9.42E-1
824,7.32E-1
825,9.42E-1
826,7.32E-1
827,9.42E-1
828,9.24E-1
829,1.86E-1
830,2.16E-1
831,9.24E-1
832,7.50E-1
833,9.42E-1
834,9.42E-1
835,7.38E-1
836,9.48E-1
837,7.32E-1
838,9.48E-1
839,7.38E-1
840,7.32E-1
841,9.42E-1
842,9.36E-1
843,7.32E-1
844,9.12E-1
845,1.98E-1
846,3.30E-1
847,9.36E-1
848,7.32E-1
849,9.48E-1
850,7.32E-1
851,9.48E-1
852,9.42E-1
853,7.32E-1
854,7.32E-1
855,9.48E-1
856,9.42E-1
857,7.32E-1
858,9.42E-1
859,3.60E-1
860,1.86E-1
861,9.12E-1
862,7.20E-1
863,9.36E-1
864,7.32E-1
865,9.42E-1
866,7.56E-1
867,9.42E-1
868,7.38E-1
869,9.42E-1
870,9.42E-1
871,7.32E-1
872,9.36E-1
873,7.26E-1
874,9.18E-1
875,2.10E-1
876,2.10E-1
877,9.30E-1
878,9.42E-1
879,7.32E-1
880,7.32E-1
881,9.42E-1
882,9.42E-1
883,7.32E-1
884,7.32E-1
885,9.42E-1
886,7.32E-1
887,9.42E-1
888,9.42E-1
889,7.26E-1
890,9.18E-1
891,1.86E-1
892,2.34E-1
893,9.30E-1
894,7.26E-1
895,9.42E-1
896,7.32E-1
897,9.42E-1
898,7.32E-1
899,9.48E-1
900,7.32E-1
901,9.48E-1
902,7.32E-1
903,9.48E-1
904,9.36E-1
905,7.26E-1
906,2.10E-1
907,9.12E-1
908,7.44E-1
909,9.42E-1
910,7.38E-1
911,9.42E-1
912,9.48E-1
913,7.32E-1
914,7.38E-1
915,9.54E-1
916,7.38E-1
917,9.42E-1
918,7.32E-1
919,9.42E-1
920,9.30E-1
921,2.04E-1
922,1.86E-1
923,9.18E-1
924,7.26E-1
925,9.36E-1
926,7.32E-1
927,9.42E-1
928,9.42E-1
929,7.32E-1
930,7.32E-1
931,9.42E-1
932,9.42E-1
933,7.32E-1
934,7.26E-1
935,9.36E-1
936,9.18E-1
937,2.04E-1
938,2.04E-1
939,9.36E-1
940,7.32E-1
941,9.42E-1
942,7.32E-1
943,9.48E-1
944,9.42E-1
945,7.32E-1
946,9.42E-1
947,7.32E-1
948,9.42E-1
949,7.32E-1
950,9.36E-1
951,7.26E-1
952,8.88E-1
953,1.92E-1
954,7.26E-1
955,9.24E-1
956,9.36E-1
957,7.32E-1
958,9.36E-1
959,7.32E-1
960,9.42E-1
961,7.32E-1
962,7.32E-1
963,9.42E-1
964,9.36E-1
965,7.32E-1
966,9.24E-1
967,2.16E-1
968,1.98E-1
969,9.30E-1
970,7.32E-1
971,9.42E-1
972,9.42E-1
973,7.32E-1
974,7.32E-1
975,9.54E-1
976,9.42E-1
977,7.32E-1
978,9.42E-1
979,7.32E-1
980,9.36E-1
981,7.26E-1
982,9.30E-1
983,1.86E-1
984,1.98E-1
985,9.18E-1
986,7.26E-1
987,9.36E-1
988,9.42E-1
989,7.32E-1
990,9.42E-1
991,7.56E-1
992,7.32E-1
993,9.48E-1
994,9.42E-1
995,7.32E-1
996,9.36E-1
997,7.26E-1
998,9.12E-1
999,2.16E-1
1000,3.48E-1
1001,9.42E-1
1002,9.48E-1
1003,7.38E-1
1004,9.48E-1
1005,7.32E-1
1006,9.48E-1
1007,7.38E-1
1008,9.48E-1
1009,7.38E-1
1010,7.32E-1
1011,9.42E-1
1012,9.30E-1
1013,2.22E-1
1014,1.98E-1
1015,9.06E-1
1016,7.26E-1
1017,9.36E-1
1018,7.32E-1
1019,9.42E-1
1020,9.42E-1
1021,7.32E-1
1022,9.36E-1
1023,7.26E-1
1024,9.36E-1
1025,7.26E-1
1026,9.36E-1
1027,7.26E-1
1028,9.24E-1
1029,1.98E-1
1030,1.98E-1
1031,9.30E-1
1032,7.26E-1
1033,9.42E-1
1034,9.42E-1
1035,7.32E-1
1036,9.42E-1
1037,7.32E-1
1038,9.42E-1
1039,7.56E-1
1040,9.42E-1
1041,7.38E-1
1042,9.36E-1
1043,7.32E-1
1044,9.12E-1
1045,1.98E-1
1046,3.48E-1
1047,9.24E-1
1048,7.26E-1
1049,9.36E-1
1050,9.42E-1
1051,7.32E-1
1052,9.42E-1
1053,7.32E-1
1054,7.38E-1
1055,9.42E-1
1056,9.36E-1
1057,7.32E-1
1058,9.24E-1
1059,7.14E-1
1060,2.04E-1
1061,9.06E-1
1062,7.32E-1
1063,9.36E-1
1064,9.42E-1
1065,7.32E-1
1066,9.48E-1
1067,7.38E-1
1068,9.48E-1
1069,7.32E-1
1070,9.48E-1
1071,7.32E-1
1072,9.48E-1
1073,7.32E-1
1074,9.36E-1
1075,1.98E-1
1076,1.92E-1
1077,9.24E-1
1078,7.26E-1
1079,9.42E-1
1080,7.32E-1
1081,9.48E-1
1082,9.48E-1
1083,7.32E-1
1084,7.32E-1
1085,9.48E-1
1086,7.32E-1
1087,9.42E-1
1088,9.42E-1
1089,7.26E-1
1090,9.18E-1
1091,2.04E-1
1092,2.16E-1
1093,9.42E-1
1094,7.38E-1
1095,9.48E-1
1096,9.48E-1
1097,7.44E-1
1098,9.54E-1
1099,7.38E-1
1100,9.54E-1
1101,7.50E-1
1102,9.54E-1
1103,7.32E-1
1104,9.42E-1
1105,7.26E-1
1106,8.88E-1
1107,1.98E-1
1108,7.26E-1
1109,9.36E-1
1110,7.38E-1
1111,9.48E-1
1112,9.42E-1
1113,7.32E-1
1114,7.38E-1
1115,9.48E-1
1116,9.42E-1
1117,7.38E-1
1118,9.42E-1
1119,7.32E-1
1120,9.36E-1
1121,2.22E-1
1122,2.04E-1
1123,9.30E-1
1124,7.32E-1
1125,9.48E-1
1126,7.38E-1
1127,9.54E-1
1128,9.54E-1
1129,7.38E-1
1130,9.54E-1
1131,7.38E-1
1132,9.54E-1
1133,7.32E-1
1134,9.48E-1
1135,7.32E-1
1136,9.30E-1
1137,1.98E-1
1138,2.04E-1
1139,9.30E-1
1140,7.32E-1
1141,9.42E-1
1142,7.32E-1
1143,9.48E-1
1144,9.48E-1
1145,7.32E-1
1146,9.48E-1
1147,7.32E-1
1148,7.32E-1
1149,9.48E-1
1150,9.36E-1
1151,7.32E-1
1152,9.24E-1
1153,2.22E-1
1154,5.04E-1
1155,9.42E-1
1156,7.50E-1
1157,9.54E-1
1158,9.48E-1
1159,7.38E-1
1160,9.48E-1
1161,7.44E-1
1162,9.48E-1
1163,7.38E-1
1164,9.48E-1
1165,7.38E-1
1166,9.42E-1
1167,2.28E-1
1168,1.92E-1
1169,9.12E-1
1170,7.26E-1
1171,9.42E-1
1172,7.32E-1
1173,9.42E-1
1174,7.32E-1
1175,9.48E-1
1176,9.48E-1
1177,7.26E-1
1178,9.42E-1
1179,7.32E-1
1180,9.42E-1
1181,7.26E-1
1182,9.30E-1
1183,2.04E-1
1184,1.98E-1
1185,9.36E-1
1186,7.32E-1
1187,9.48E-1
1188,7.38E-1
1189,9.48E-1
1190,7.32E-1
1191,9.54E-1
1192,9.48E-1
1193,7.32E-1
1194,9.48E-1
1195,7.32E-1
1196,9.42E-1
1197,7.32E-1
1198,9.18E-1
1199,2.10E-1
